%YAML 1.1
%TAG !u! tag:unity3d.com,2011:
--- !u!1001 &5347251389550251713
PrefabInstance:
  m_ObjectHideFlags: 0
  serializedVersion: 2
  m_Modification:
    serializedVersion: 3
    m_TransformParent: {fileID: 0}
    m_Modifications:
    - target: {fileID: 1306544835214793787, guid: 4346363e18f7e2a489024da4639bcc50,
        type: 3}
      propertyPath: m_Delegates.Array.data[0].callback.m_PersistentCalls.m_Calls.Array.data[0].m_Target
      value: 
      objectReference: {fileID: 0}
    - target: {fileID: 1306544835214793787, guid: 4346363e18f7e2a489024da4639bcc50,
        type: 3}
      propertyPath: m_Delegates.Array.data[1].callback.m_PersistentCalls.m_Calls.Array.data[0].m_Target
      value: 
      objectReference: {fileID: 0}
    - target: {fileID: 2922891927755403872, guid: 4346363e18f7e2a489024da4639bcc50,
        type: 3}
      propertyPath: m_Name
      value: T_Move NoEdit Switch
      objectReference: {fileID: 0}
    - target: {fileID: 5789613788515872968, guid: 4346363e18f7e2a489024da4639bcc50,
        type: 3}
      propertyPath: canEdit
      value: 0
      objectReference: {fileID: 0}
    - target: {fileID: 6286599282253754230, guid: 4346363e18f7e2a489024da4639bcc50,
        type: 3}
      propertyPath: m_Materials.Array.size
      value: 2
      objectReference: {fileID: 0}
    - target: {fileID: 6286599282253754230, guid: 4346363e18f7e2a489024da4639bcc50,
        type: 3}
      propertyPath: m_Materials.Array.data[0]
      value: 
      objectReference: {fileID: 2100000, guid: a6c3f43e7e35e3a4cbb2882d48337df0, type: 2}
    - target: {fileID: 6286599282253754230, guid: 4346363e18f7e2a489024da4639bcc50,
        type: 3}
      propertyPath: m_Materials.Array.data[1]
      value: 
      objectReference: {fileID: 2100000, guid: dbf818bae804be14a8431b60f1542565, type: 2}
    - target: {fileID: 6527443273323577344, guid: 4346363e18f7e2a489024da4639bcc50,
        type: 3}
      propertyPath: m_LocalPosition.x
      value: 5.5
      objectReference: {fileID: 0}
    - target: {fileID: 6527443273323577344, guid: 4346363e18f7e2a489024da4639bcc50,
        type: 3}
      propertyPath: m_LocalPosition.y
      value: 0
      objectReference: {fileID: 0}
    - target: {fileID: 6527443273323577344, guid: 4346363e18f7e2a489024da4639bcc50,
        type: 3}
      propertyPath: m_LocalPosition.z
      value: 0.5
      objectReference: {fileID: 0}
    - target: {fileID: 6527443273323577344, guid: 4346363e18f7e2a489024da4639bcc50,
        type: 3}
      propertyPath: m_LocalRotation.w
      value: 0.7071068
      objectReference: {fileID: 0}
    - target: {fileID: 6527443273323577344, guid: 4346363e18f7e2a489024da4639bcc50,
        type: 3}
      propertyPath: m_LocalRotation.x
      value: 0
      objectReference: {fileID: 0}
    - target: {fileID: 6527443273323577344, guid: 4346363e18f7e2a489024da4639bcc50,
        type: 3}
      propertyPath: m_LocalRotation.y
      value: 0.7071068
      objectReference: {fileID: 0}
    - target: {fileID: 6527443273323577344, guid: 4346363e18f7e2a489024da4639bcc50,
        type: 3}
      propertyPath: m_LocalRotation.z
      value: 0
      objectReference: {fileID: 0}
    - target: {fileID: 6527443273323577344, guid: 4346363e18f7e2a489024da4639bcc50,
        type: 3}
      propertyPath: m_LocalEulerAnglesHint.x
      value: 0
      objectReference: {fileID: 0}
    - target: {fileID: 6527443273323577344, guid: 4346363e18f7e2a489024da4639bcc50,
        type: 3}
      propertyPath: m_LocalEulerAnglesHint.y
      value: 90
      objectReference: {fileID: 0}
    - target: {fileID: 6527443273323577344, guid: 4346363e18f7e2a489024da4639bcc50,
        type: 3}
      propertyPath: m_LocalEulerAnglesHint.z
      value: 0
      objectReference: {fileID: 0}
    - target: {fileID: 6777339022279787261, guid: 4346363e18f7e2a489024da4639bcc50,
        type: 3}
      propertyPath: placed
      value: 1
      objectReference: {fileID: 0}
    m_RemovedComponents:
    - {fileID: 6777339022279787261, guid: 4346363e18f7e2a489024da4639bcc50, type: 3}
    - {fileID: 1853836546560721299, guid: 4346363e18f7e2a489024da4639bcc50, type: 3}
    m_RemovedGameObjects: []
    m_AddedGameObjects: []
    m_AddedComponents:
    - targetCorrespondingSourceObject: {fileID: 2922891927755403872, guid: 4346363e18f7e2a489024da4639bcc50,
        type: 3}
      insertIndex: -1
      addedObject: {fileID: 6502650438006501543}
    - targetCorrespondingSourceObject: {fileID: 2922891927755403872, guid: 4346363e18f7e2a489024da4639bcc50,
        type: 3}
      insertIndex: -1
      addedObject: {fileID: 8815907310020864288}
  m_SourcePrefab: {fileID: 100100000, guid: 4346363e18f7e2a489024da4639bcc50, type: 3}
--- !u!1 &7108213438281481377 stripped
GameObject:
  m_CorrespondingSourceObject: {fileID: 2922891927755403872, guid: 4346363e18f7e2a489024da4639bcc50,
    type: 3}
  m_PrefabInstance: {fileID: 5347251389550251713}
  m_PrefabAsset: {fileID: 0}
--- !u!114 &6502650438006501543
MonoBehaviour:
  m_ObjectHideFlags: 0
  m_CorrespondingSourceObject: {fileID: 0}
  m_PrefabInstance: {fileID: 0}
  m_PrefabAsset: {fileID: 0}
  m_GameObject: {fileID: 7108213438281481377}
  m_Enabled: 1
  m_EditorHideFlags: 0
  m_Script: {fileID: 11500000, guid: 7002d262d299c004992f9bf9fd69ae70, type: 3}
  m_Name: 
  m_EditorClassIdentifier: 
  canEdit: 0
  taken: 1
  normalColor: {r: 0, g: 0, b: 0, a: 0}
  placedColor: {r: 0, g: 0, b: 0, a: 0}
  takenColor: {r: 0, g: 0, b: 0, a: 0}
  normalThickness: 0
  hoverThickness: 0
  spr: {fileID: 21300000, guid: b6235b430dba74d46afa80a9fe80479d, type: 3}
--- !u!114 &8815907310020864288
MonoBehaviour:
  m_ObjectHideFlags: 0
  m_CorrespondingSourceObject: {fileID: 0}
  m_PrefabInstance: {fileID: 0}
  m_PrefabAsset: {fileID: 0}
  m_GameObject: {fileID: 7108213438281481377}
  m_Enabled: 1
  m_EditorHideFlags: 0
  m_Script: {fileID: 11500000, guid: 8e0ed29652320a548a4d7fe478cc5955, type: 3}
  m_Name: 
  m_EditorClassIdentifier: 
  canEdit: 0
  normalColor: {r: 1, g: 1, b: 1, a: 0}
  placedColor: {r: 1, g: 1, b: 0, a: 0}
  takenColor: {r: 1, g: 0, b: 0, a: 0}
  normalThickness: 0.85
  hoverThickness: 0.75
