%YAML 1.1
%TAG !u! tag:unity3d.com,2011:
--- !u!1001 &7275542774641686324
PrefabInstance:
  m_ObjectHideFlags: 0
  serializedVersion: 2
  m_Modification:
    serializedVersion: 3
    m_TransformParent: {fileID: 0}
    m_Modifications:
    - target: {fileID: 1797909374957552193, guid: 3f0610fdee03b044aab029d6413f6810,
        type: 3}
      propertyPath: m_LocalPosition.x
      value: 1.5
      objectReference: {fileID: 0}
    - target: {fileID: 1797909374957552193, guid: 3f0610fdee03b044aab029d6413f6810,
        type: 3}
      propertyPath: m_LocalPosition.y
      value: 0
      objectReference: {fileID: 0}
    - target: {fileID: 1797909374957552193, guid: 3f0610fdee03b044aab029d6413f6810,
        type: 3}
      propertyPath: m_LocalPosition.z
      value: 4.5
      objectReference: {fileID: 0}
    - target: {fileID: 1797909374957552193, guid: 3f0610fdee03b044aab029d6413f6810,
        type: 3}
      propertyPath: m_LocalRotation.w
      value: 1
      objectReference: {fileID: 0}
    - target: {fileID: 1797909374957552193, guid: 3f0610fdee03b044aab029d6413f6810,
        type: 3}
      propertyPath: m_LocalRotation.x
      value: 0
      objectReference: {fileID: 0}
    - target: {fileID: 1797909374957552193, guid: 3f0610fdee03b044aab029d6413f6810,
        type: 3}
      propertyPath: m_LocalRotation.y
      value: 0
      objectReference: {fileID: 0}
    - target: {fileID: 1797909374957552193, guid: 3f0610fdee03b044aab029d6413f6810,
        type: 3}
      propertyPath: m_LocalRotation.z
      value: 0
      objectReference: {fileID: 0}
    - target: {fileID: 1797909374957552193, guid: 3f0610fdee03b044aab029d6413f6810,
        type: 3}
      propertyPath: m_LocalEulerAnglesHint.x
      value: 0
      objectReference: {fileID: 0}
    - target: {fileID: 1797909374957552193, guid: 3f0610fdee03b044aab029d6413f6810,
        type: 3}
      propertyPath: m_LocalEulerAnglesHint.y
      value: 0
      objectReference: {fileID: 0}
    - target: {fileID: 1797909374957552193, guid: 3f0610fdee03b044aab029d6413f6810,
        type: 3}
      propertyPath: m_LocalEulerAnglesHint.z
      value: 0
      objectReference: {fileID: 0}
    - target: {fileID: 3250670968703326341, guid: 3f0610fdee03b044aab029d6413f6810,
        type: 3}
      propertyPath: m_Name
      value: T_Wall Variant
      objectReference: {fileID: 0}
    - target: {fileID: 3250670968703326341, guid: 3f0610fdee03b044aab029d6413f6810,
        type: 3}
      propertyPath: m_IsActive
      value: 1
      objectReference: {fileID: 0}
    - target: {fileID: 6661859684805614931, guid: 3f0610fdee03b044aab029d6413f6810,
        type: 3}
      propertyPath: m_Enabled
      value: 0
      objectReference: {fileID: 0}
    m_RemovedComponents: []
    m_RemovedGameObjects: []
    m_AddedGameObjects: []
    m_AddedComponents: []
  m_SourcePrefab: {fileID: 100100000, guid: 3f0610fdee03b044aab029d6413f6810, type: 3}
